// Jest Snapshot v1, https://goo.gl/fbAQLP

exports[`Login Admin renders correctly 1`] = `
<div>
  <div
    class="container-fluid d-flex flex-column justify-content-center align-items-center"
  >
    <h1
      class="form-title"
    >
      Login
    </h1>
    <div
      class="form-wrapper"
    >
      <div
        class="mb-3"
      >
        <input
          class="form-control"
          id="username"
          name="username"
          placeholder="Your Username"
          required=""
          type="text"
          value=""
        />
      </div>
      <div
        class="mb-3"
      >
        <input
          class="form-control"
          id="password"
          name="password"
          placeholder="Your Password"
          required=""
          type="password"
          value=""
        />
      </div>
      <button
        class="form-button__login"
        type="submit"
      >
        Sign In
      </button>
    </div>
  </div>
</div>
`;
